Soluções | LADDEM
…
## Warning: 1000 parsing failures.
##  row col           expected     actual                                                                     file
## 1001   y 1/0/T/F/TRUE/FALSE 2015-01-16 'C:/Users/vinic/Documents/R/win-library/4.1/readr/extdata/challenge.csv'
## 1002   y 1/0/T/F/TRUE/FALSE 2018-05-18 'C:/Users/vinic/Documents/R/win-library/4.1/readr/extdata/challenge.csv'
## 1003   y 1/0/T/F/TRUE/FALSE 2015-09-05 'C:/Users/vinic/Documents/R/win-library/4.1/readr/extdata/challenge.csv'
## 1004   y 1/0/T/F/TRUE/FALSE 2012-11-28 'C:/Users/vinic/Documents/R/win-library/4.1/readr/extdata/challenge.csv'
## 1005   y 1/0/T/F/TRUE/FALSE 2020-01-13 'C:/Users/vinic/Documents/R/win-library/4.1/readr/extdata/challenge.csv'
## .... ... .................. .......... ........................................................................
## See problems(...) for more details.

df

## # A tibble: 2,000 x 2
##        x y    
##    <dbl> <lgl>
##  1   404 NA   
##  2  4172 NA   
##  3  3004 NA   
##  4   787 NA   
##  5    37 NA   
##  6  2332 NA   
##  7  2489 NA   
##  8  1449 NA   
##  9  3665 NA   
## 10  3863 NA   
## # ... with 1,990 more rows
…
# 1. Aumentando o número de observações utilizadas para adivinhar as colunas
df <- read_csv(file, guess_max = 1001)

## 
## -- Column specification --------------------------------------------------------
## cols(
##   x = col_double(),
##   y = col_date(format = "")
## )

# A específicação da coluna Y agora é <date>
df

## # A tibble: 2,000 x 2
##        x y         
##    <dbl> <date>    
##  1   404 NA        
##  2  4172 NA        
##  3  3004 NA        
##  4   787 NA        
##  5    37 NA        
##  6  2332 NA        
##  7  2489 NA        
##  8  1449 NA        
##  9  3665 NA        
## 10  3863 NA        
## # ... with 1,990 more rows

# 2. escolhendo diretamente o tipo de coluna antes da importação
tipos <- cols(
  y = col_date()
)

df <- read_csv(file, col_types = tipos)

# Mesmo resultado
df

## # A tibble: 2,000 x 2
##        x y         
##    <dbl> <date>    
##  1   404 NA        
##  2  4172 NA        
##  3  3004 NA        
##  4   787 NA        
##  5    37 NA        
##  6  2332 NA        
##  7  2489 NA        
##  8  1449 NA        
##  9  3665 NA        
## 10  3863 NA        
## # ... with 1,990 more rows
…
relig_income %>% pivot_longer(
  
  # As colunas a serem modificadas, notem o uso de ':' para selecionar várias
  # colunas em sequência
  cols = `<$10k`:`Don't know/refused`,
  
  # Variável recebe os nomes da antiga coluna
  names_to = "nivel_renda",
  
  # Variável recebe os valores das células
  values_to = "contagem"
  
)

## # A tibble: 180 x 3
##    religion nivel_renda        contagem
##    <chr>    <chr>                 <dbl>
##  1 Agnostic <$10k                    27
##  2 Agnostic $10-20k                  34
##  3 Agnostic $20-30k                  60
##  4 Agnostic $30-40k                  81
##  5 Agnostic $40-50k                  76
##  6 Agnostic $50-75k                 137
##  7 Agnostic $75-100k                122
##  8 Agnostic $100-150k               109
##  9 Agnostic >150k                    84
## 10 Agnostic Don't know/refused       96
## # ... with 170 more rows

Transforme o banco billboard para que ele contenha apenas uma coluna “semana” e uma coluna com a posição da música no ranking.

Dica, você pode selecionar várias colunas usando o atalho wk1:wk76

billboard

## # A tibble: 317 x 79
##    artist   track   date.entered   wk1   wk2   wk3   wk4   wk5   wk6   wk7   wk8
##    <chr>    <chr>   <date>       <dbl> <dbl> <dbl> <dbl> <dbl> <dbl> <dbl> <dbl>
##  1 2 Pac    Baby D~ 2000-02-26      87    82    72    77    87    94    99    NA
##  2 2Ge+her  The Ha~ 2000-09-02      91    87    92    NA    NA    NA    NA    NA
##  3 3 Doors~ Krypto~ 2000-04-08      81    70    68    67    66    57    54    53
##  4 3 Doors~ Loser   2000-10-21      76    76    72    69    67    65    55    59
##  5 504 Boyz Wobble~ 2000-04-15      57    34    25    17    17    31    36    49
##  6 98^0     Give M~ 2000-08-19      51    39    34    26    26    19     2     2
##  7 A*Teens  Dancin~ 2000-07-08      97    97    96    95   100    NA    NA    NA
##  8 Aaliyah  I Don'~ 2000-01-29      84    62    51    41    38    35    35    38
##  9 Aaliyah  Try Ag~ 2000-03-18      59    53    38    28    21    18    16    14
## 10 Adams, ~ Open M~ 2000-08-26      76    76    74    69    68    67    61    58
## # ... with 307 more rows, and 68 more variables: wk9 <dbl>, wk10 <dbl>,
## #   wk11 <dbl>, wk12 <dbl>, wk13 <dbl>, wk14 <dbl>, wk15 <dbl>, wk16 <dbl>,
## #   wk17 <dbl>, wk18 <dbl>, wk19 <dbl>, wk20 <dbl>, wk21 <dbl>, wk22 <dbl>,
## #   wk23 <dbl>, wk24 <dbl>, wk25 <dbl>, wk26 <dbl>, wk27 <dbl>, wk28 <dbl>,
## #   wk29 <dbl>, wk30 <dbl>, wk31 <dbl>, wk32 <dbl>, wk33 <dbl>, wk34 <dbl>,
## #   wk35 <dbl>, wk36 <dbl>, wk37 <dbl>, wk38 <dbl>, wk39 <dbl>, wk40 <dbl>,
## #   wk41 <dbl>, wk42 <dbl>, wk43 <dbl>, wk44 <dbl>, wk45 <dbl>, wk46 <dbl>,
## #   wk47 <dbl>, wk48 <dbl>, wk49 <dbl>, wk50 <dbl>, wk51 <dbl>, wk52 <dbl>,
## #   wk53 <dbl>, wk54 <dbl>, wk55 <dbl>, wk56 <dbl>, wk57 <dbl>, wk58 <dbl>,
…
billboard %>% pivot_longer(
  # Colunas que serão transformadas
  cols = wk1:wk76,
  # Nome da variável que receberá os nomes das colunas
  names_to = "semana",
  # Nome da variável que receberá os valores das células
  values_to = "posicao_rank",
  # Nesse caso, uso o argumento opcional para eliminar os NAs
  values_drop_na = TRUE
  # Experimente mudar este argumento para FALSE e veja o resultado
  # Quando uma música não está mais nas paradas, ela recebe NA. Acho
  # justificado excluir os NAs nesse caso.
)

## # A tibble: 5,307 x 5
##    artist  track                   date.entered semana posicao_rank
##    <chr>   <chr>                   <date>       <chr>         <dbl>
##  1 2 Pac   Baby Don't Cry (Keep... 2000-02-26   wk1              87
##  2 2 Pac   Baby Don't Cry (Keep... 2000-02-26   wk2              82
##  3 2 Pac   Baby Don't Cry (Keep... 2000-02-26   wk3              72
##  4 2 Pac   Baby Don't Cry (Keep... 2000-02-26   wk4              77
##  5 2 Pac   Baby Don't Cry (Keep... 2000-02-26   wk5              87
##  6 2 Pac   Baby Don't Cry (Keep... 2000-02-26   wk6              94
##  7 2 Pac   Baby Don't Cry (Keep... 2000-02-26   wk7              99
##  8 2Ge+her The Hardest Part Of ... 2000-09-02   wk1              91
##  9 2Ge+her The Hardest Part Of ... 2000-09-02   wk2              87
## 10 2Ge+her The Hardest Part Of ... 2000-09-02   wk3              92
## # ... with 5,297 more rows
…
relig_income_long

## # A tibble: 180 x 3
##    religion nivel_renda        contagem
##    <chr>    <chr>                 <dbl>
##  1 Agnostic <$10k                    27
##  2 Agnostic $10-20k                  34
##  3 Agnostic $20-30k                  60
##  4 Agnostic $30-40k                  81
##  5 Agnostic $40-50k                  76
##  6 Agnostic $50-75k                 137
##  7 Agnostic $75-100k                122
##  8 Agnostic $100-150k               109
##  9 Agnostic >150k                    84
## 10 Agnostic Don't know/refused       96
## # ... with 170 more rows

billboard_long

## # A tibble: 5,307 x 5
##    artist  track                   date.entered semana posicao_rank
##    <chr>   <chr>                   <date>       <chr>         <dbl>
##  1 2 Pac   Baby Don't Cry (Keep... 2000-02-26   wk1              87
##  2 2 Pac   Baby Don't Cry (Keep... 2000-02-26   wk2              82
##  3 2 Pac   Baby Don't Cry (Keep... 2000-02-26   wk3              72
##  4 2 Pac   Baby Don't Cry (Keep... 2000-02-26   wk4              77
##  5 2 Pac   Baby Don't Cry (Keep... 2000-02-26   wk5              87
##  6 2 Pac   Baby Don't Cry (Keep... 2000-02-26   wk6              94
##  7 2 Pac   Baby Don't Cry (Keep... 2000-02-26   wk7              99
##  8 2Ge+her The Hardest Part Of ... 2000-09-02   wk1              91
##  9 2Ge+her The Hardest Part Of ... 2000-09-02   wk2              87
## 10 2Ge+her The Hardest Part Of ... 2000-09-02   wk3              92
## # ... with 5,297 more rows
…
billboard_long %>% pivot_wider(
  # Colunas não modificadas
  id_cols = c(artist, track, date.entered),
  
  # Variável com os nomes para as novas colunas
  names_from = semana,
  
  # Variável com os valores para as células
  values_from = posicao_rank
)

## # A tibble: 317 x 68
##    artist   track   date.entered   wk1   wk2   wk3   wk4   wk5   wk6   wk7   wk8
##    <chr>    <chr>   <date>       <dbl> <dbl> <dbl> <dbl> <dbl> <dbl> <dbl> <dbl>
##  1 2 Pac    Baby D~ 2000-02-26      87    82    72    77    87    94    99    NA
##  2 2Ge+her  The Ha~ 2000-09-02      91    87    92    NA    NA    NA    NA    NA
##  3 3 Doors~ Krypto~ 2000-04-08      81    70    68    67    66    57    54    53
##  4 3 Doors~ Loser   2000-10-21      76    76    72    69    67    65    55    59
##  5 504 Boyz Wobble~ 2000-04-15      57    34    25    17    17    31    36    49
##  6 98^0     Give M~ 2000-08-19      51    39    34    26    26    19     2     2
##  7 A*Teens  Dancin~ 2000-07-08      97    97    96    95   100    NA    NA    NA
##  8 Aaliyah  I Don'~ 2000-01-29      84    62    51    41    38    35    35    38
##  9 Aaliyah  Try Ag~ 2000-03-18      59    53    38    28    21    18    16    14
## 10 Adams, ~ Open M~ 2000-08-26      76    76    74    69    68    67    61    58
## # ... with 307 more rows, and 57 more variables: wk9 <dbl>, wk10 <dbl>,
## #   wk11 <dbl>, wk12 <dbl>, wk13 <dbl>, wk14 <dbl>, wk15 <dbl>, wk16 <dbl>,
## #   wk17 <dbl>, wk18 <dbl>, wk19 <dbl>, wk20 <dbl>, wk21 <dbl>, wk22 <dbl>,
## #   wk23 <dbl>, wk24 <dbl>, wk25 <dbl>, wk26 <dbl>, wk27 <dbl>, wk28 <dbl>,
## #   wk29 <dbl>, wk30 <dbl>, wk31 <dbl>, wk32 <dbl>, wk33 <dbl>, wk34 <dbl>,
## #   wk35 <dbl>, wk36 <dbl>, wk37 <dbl>, wk38 <dbl>, wk39 <dbl>, wk40 <dbl>,
## #   wk41 <dbl>, wk42 <dbl>, wk43 <dbl>, wk44 <dbl>, wk45 <dbl>, wk46 <dbl>,
## #   wk47 <dbl>, wk48 <dbl>, wk49 <dbl>, wk50 <dbl>, wk51 <dbl>, wk52 <dbl>,
## #   wk53 <dbl>, wk54 <dbl>, wk55 <dbl>, wk56 <dbl>, wk57 <dbl>, wk58 <dbl>,
…
