ggplot2 | LADDEM
…
          ggplot2

            O pacote ggplot2 e a “gramática dos gráficos”

Ainda me lembro da primeira vez que li o terceiro capítulo de R for Data Science em que o conceito de visualização de dados é apresentado junto com a ideia de data.frame e o código utilizado para gerar o gráfico. Acho que se o termo sobrecarga infromacional não existisse, eu teria inventado ele na hora.

Anedotas a parte, não é culpa do autor. O livro pressupõe um certo conhecimento prévio que eu não tinha quando o li pela primeira vez. Imagino que a maioria de vocês já viu gráficos na vida e até construiu um ou dois deles usando esse ou outros softwares estatísticos. O que talvez nem todos tenham claro na mente é que os gráficos são uma codificação num sistema de coordenadas das informações presentes em um banco de dados através de escalas. Vamos destrinchar um pouco melhor isso:

Suponha que você tenha o banco de dados mpg, presente na biblioteca ggplot2.

library(ggplot2)
mpg

## # A tibble: 234 x 11
##    manufacturer model    displ  year   cyl trans   drv     cty   hwy fl    class
##    <chr>        <chr>    <dbl> <int> <int> <chr>   <chr> <int> <int> <chr> <chr>
##  1 audi         a4         1.8  1999     4 auto(l~ f        18    29 p     comp~
##  2 audi         a4         1.8  1999     4 manual~ f        21    29 p     comp~
##  3 audi         a4         2    2008     4 manual~ f        20    31 p     comp~
##  4 audi         a4         2    2008     4 auto(a~ f        21    30 p     comp~
##  5 audi         a4         2.8  1999     6 auto(l~ f        16    26 p     comp~
##  6 audi         a4         2.8  1999     6 manual~ f        18    26 p     comp~
##  7 audi         a4         3.1  2008     6 auto(a~ f        18    27 p     comp~
##  8 audi         a4 quat~   1.8  1999     4 manual~ 4        18    26 p     comp~
##  9 audi         a4 quat~   1.8  1999     4 auto(l~ 4        16    25 p     comp~
## 10 audi         a4 quat~   2    2008     4 manual~ 4        20    28 p     comp~
## # ... with 224 more rows
…
Ok, mas e se temos um gráfico de linhas mais tradicional, tipo uma série histórica?

economics

## # A tibble: 574 x 6
##    date         pce    pop psavert uempmed unemploy
##    <date>     <dbl>  <dbl>   <dbl>   <dbl>    <dbl>
##  1 1967-07-01  507. 198712    12.6     4.5     2944
##  2 1967-08-01  510. 198911    12.6     4.7     2945
##  3 1967-09-01  516. 199113    11.9     4.6     2958
##  4 1967-10-01  512. 199311    12.9     4.9     3143
##  5 1967-11-01  517. 199498    12.8     4.7     3066
##  6 1967-12-01  525. 199657    11.8     4.8     3018
##  7 1968-01-01  531. 199808    11.7     5.1     2878
##  8 1968-02-01  534. 199920    12.3     4.5     3001
##  9 1968-03-01  544. 200056    11.7     4.1     2877
## 10 1968-04-01  544  200208    12.3     4.6     2709
## # ... with 564 more rows
…
Ficou meio ruim, porque as variável tem grandezas distintas. Podemos tentar resolver esse problema aplicando transformações na variável idade, mas meio que pra qualquer lugar onde caminhos, batemos numa parede ou noutra. Esse tipo de solução é muito frequente entre pessoas que vem do base pro ggplot2, porque no base estamos acostumado a ideia de adicionar mais objetos geométricos ao nosso gráfico original adicionando invocações à funções como lines ou text. Porém, a solução preferida no tidyverse é aplicar uma transformação no banco original de tal forma que as nossas variáveis numéricas caiam todas num par que especifica o nome da variável | e o valor dela.

library(tidyr)
economics %>% 
  pivot_longer(cols = -date,
               names_to = "variavel",
               values_to = "valor")

## # A tibble: 2,870 x 3
##    date       variavel    valor
##    <date>     <chr>       <dbl>
##  1 1967-07-01 pce         507. 
##  2 1967-07-01 pop      198712  
##  3 1967-07-01 psavert      12.6
##  4 1967-07-01 uempmed       4.5
##  5 1967-07-01 unemploy   2944  
##  6 1967-08-01 pce         510. 
##  7 1967-08-01 pop      198911  
##  8 1967-08-01 psavert      12.6
##  9 1967-08-01 uempmed       4.7
## 10 1967-08-01 unemploy   2945  
## # ... with 2,860 more rows
…
Legal né?

Barcharts

Para terminar e ilustrar alguns exemplos de transformação estatística, vamos fazer alguns gráficos de barras usando o diamonds, um banco de dados para fazer a alegria das piores pessoas na história da humanidade.

diamonds

## # A tibble: 53,940 x 10
##    carat cut       color clarity depth table price     x     y     z
##    <dbl> <ord>     <ord> <ord>   <dbl> <dbl> <int> <dbl> <dbl> <dbl>
##  1  0.23 Ideal     E     SI2      61.5    55   326  3.95  3.98  2.43
##  2  0.21 Premium   E     SI1      59.8    61   326  3.89  3.84  2.31
##  3  0.23 Good      E     VS1      56.9    65   327  4.05  4.07  2.31
##  4  0.29 Premium   I     VS2      62.4    58   334  4.2   4.23  2.63
##  5  0.31 Good      J     SI2      63.3    58   335  4.34  4.35  2.75
##  6  0.24 Very Good J     VVS2     62.8    57   336  3.94  3.96  2.48
##  7  0.24 Very Good I     VVS1     62.3    57   336  3.95  3.98  2.47
##  8  0.26 Very Good H     SI1      61.9    55   337  4.07  4.11  2.53
##  9  0.22 Fair      E     VS2      65.1    61   337  3.87  3.78  2.49
## 10  0.23 Very Good H     VS1      59.4    61   338  4     4.05  2.39
## # ... with 53,930 more rows
…
