stringr, forcats e dplyr | LADDEM
…
## 
## Attaching package: 'dplyr'

## The following objects are masked from 'package:stats':
## 
##     filter, lag

## The following objects are masked from 'package:base':
## 
##     intersect, setdiff, setequal, union

flights

## # A tibble: 336,776 x 19
##     year month   day dep_time sched_dep_time dep_delay arr_time sched_arr_time
##    <int> <int> <int>    <int>          <int>     <dbl>    <int>          <int>
##  1  2013     1     1      517            515         2      830            819
##  2  2013     1     1      533            529         4      850            830
##  3  2013     1     1      542            540         2      923            850
##  4  2013     1     1      544            545        -1     1004           1022
##  5  2013     1     1      554            600        -6      812            837
##  6  2013     1     1      554            558        -4      740            728
##  7  2013     1     1      555            600        -5      913            854
##  8  2013     1     1      557            600        -3      709            723
##  9  2013     1     1      557            600        -3      838            846
## 10  2013     1     1      558            600        -2      753            745
## # ... with 336,766 more rows, and 11 more variables: arr_delay <dbl>,
## #   carrier <chr>, flight <int>, tailnum <chr>, origin <chr>, dest <chr>,
## #   air_time <dbl>, distance <dbl>, hour <dbl>, minute <dbl>, time_hour <dttm>
…
Podemos filtrar nossas linhas: filter

# Voos de primeiro de janeiro
flights %>% filter(month == 1, day == 1)

## # A tibble: 842 x 19
##     year month   day dep_time sched_dep_time dep_delay arr_time sched_arr_time
##    <int> <int> <int>    <int>          <int>     <dbl>    <int>          <int>
##  1  2013     1     1      517            515         2      830            819
##  2  2013     1     1      533            529         4      850            830
##  3  2013     1     1      542            540         2      923            850
##  4  2013     1     1      544            545        -1     1004           1022
##  5  2013     1     1      554            600        -6      812            837
##  6  2013     1     1      554            558        -4      740            728
##  7  2013     1     1      555            600        -5      913            854
##  8  2013     1     1      557            600        -3      709            723
##  9  2013     1     1      557            600        -3      838            846
## 10  2013     1     1      558            600        -2      753            745
## # ... with 832 more rows, and 11 more variables: arr_delay <dbl>,
## #   carrier <chr>, flight <int>, tailnum <chr>, origin <chr>, dest <chr>,
## #   air_time <dbl>, distance <dbl>, hour <dbl>, minute <dbl>, time_hour <dttm>

# Voos a partir de junho
flights %>% filter(month > 6)

## # A tibble: 170,618 x 19
##     year month   day dep_time sched_dep_time dep_delay arr_time sched_arr_time
##    <int> <int> <int>    <int>          <int>     <dbl>    <int>          <int>
##  1  2013    10     1      447            500       -13      614            648
##  2  2013    10     1      522            517         5      735            757
##  3  2013    10     1      536            545        -9      809            855
##  4  2013    10     1      539            545        -6      801            827
##  5  2013    10     1      539            545        -6      917            933
##  6  2013    10     1      544            550        -6      912            932
##  7  2013    10     1      549            600       -11      653            716
##  8  2013    10     1      550            600       -10      648            700
##  9  2013    10     1      550            600       -10      649            659
## 10  2013    10     1      551            600        -9      727            730
## # ... with 170,608 more rows, and 11 more variables: arr_delay <dbl>,
## #   carrier <chr>, flight <int>, tailnum <chr>, origin <chr>, dest <chr>,
## #   air_time <dbl>, distance <dbl>, hour <dbl>, minute <dbl>, time_hour <dttm>

# Voos saídos do aeroporto JFK
flights %>% filter(origin == "JFK")

## # A tibble: 111,279 x 19
##     year month   day dep_time sched_dep_time dep_delay arr_time sched_arr_time
##    <int> <int> <int>    <int>          <int>     <dbl>    <int>          <int>
##  1  2013     1     1      542            540         2      923            850
##  2  2013     1     1      544            545        -1     1004           1022
##  3  2013     1     1      557            600        -3      838            846
##  4  2013     1     1      558            600        -2      849            851
##  5  2013     1     1      558            600        -2      853            856
##  6  2013     1     1      558            600        -2      924            917
##  7  2013     1     1      559            559         0      702            706
##  8  2013     1     1      606            610        -4      837            845
##  9  2013     1     1      611            600        11      945            931
## 10  2013     1     1      613            610         3      925            921
## # ... with 111,269 more rows, and 11 more variables: arr_delay <dbl>,
## #   carrier <chr>, flight <int>, tailnum <chr>, origin <chr>, dest <chr>,
## #   air_time <dbl>, distance <dbl>, hour <dbl>, minute <dbl>, time_hour <dttm>

# Voos com destino ao aeroporto de Albuquerque
flights %>% filter(dest == "ABQ")

## # A tibble: 254 x 19
##     year month   day dep_time sched_dep_time dep_delay arr_time sched_arr_time
##    <int> <int> <int>    <int>          <int>     <dbl>    <int>          <int>
##  1  2013    10     1     1955           2001        -6     2213           2248
##  2  2013    10     2     2010           2001         9     2230           2248
##  3  2013    10     3     1955           2001        -6     2232           2248
##  4  2013    10     4     2017           2001        16     2304           2248
##  5  2013    10     5     1959           1959         0     2226           2246
##  6  2013    10     6     1959           2001        -2     2234           2248
##  7  2013    10     7     2002           2001         1     2233           2248
##  8  2013    10     8     1957           2001        -4     2216           2248
##  9  2013    10     9     1957           2001        -4     2220           2248
## 10  2013    10    10     2011           2001        10     2235           2248
## # ... with 244 more rows, and 11 more variables: arr_delay <dbl>,
## #   carrier <chr>, flight <int>, tailnum <chr>, origin <chr>, dest <chr>,
## #   air_time <dbl>, distance <dbl>, hour <dbl>, minute <dbl>, time_hour <dttm>

# Voos com atraso de até 10 minutos
flights %>% filter(dep_delay <= 10)

## # A tibble: 245,687 x 19
##     year month   day dep_time sched_dep_time dep_delay arr_time sched_arr_time
##    <int> <int> <int>    <int>          <int>     <dbl>    <int>          <int>
##  1  2013     1     1      517            515         2      830            819
##  2  2013     1     1      533            529         4      850            830
##  3  2013     1     1      542            540         2      923            850
##  4  2013     1     1      544            545        -1     1004           1022
##  5  2013     1     1      554            600        -6      812            837
##  6  2013     1     1      554            558        -4      740            728
##  7  2013     1     1      555            600        -5      913            854
##  8  2013     1     1      557            600        -3      709            723
##  9  2013     1     1      557            600        -3      838            846
## 10  2013     1     1      558            600        -2      753            745
## # ... with 245,677 more rows, and 11 more variables: arr_delay <dbl>,
## #   carrier <chr>, flight <int>, tailnum <chr>, origin <chr>, dest <chr>,
## #   air_time <dbl>, distance <dbl>, hour <dbl>, minute <dbl>, time_hour <dttm>

# Voos com atraso de cerca de 10 minutos
flights %>% filter(near(dep_delay, 10, tol = 2))

## # A tibble: 8,677 x 19
##     year month   day dep_time sched_dep_time dep_delay arr_time sched_arr_time
##    <int> <int> <int>    <int>          <int>     <dbl>    <int>          <int>
##  1  2013     1     1      611            600        11      945            931
##  2  2013     1     1      709            700         9      852            832
##  3  2013     1     1      826            817         9     1145           1158
##  4  2013     1     1      851            840        11     1215           1206
##  5  2013     1     1     1011           1001        10     1133           1128
##  6  2013     1     1     1208           1158        10     1540           1502
##  7  2013     1     1     1240           1229        11     1451           1428
##  8  2013     1     1     1310           1300        10     1559           1554
##  9  2013     1     1     1330           1321         9     1613           1536
## 10  2013     1     1     1511           1500        11     1753           1742
## # ... with 8,667 more rows, and 11 more variables: arr_delay <dbl>,
## #   carrier <chr>, flight <int>, tailnum <chr>, origin <chr>, dest <chr>,
## #   air_time <dbl>, distance <dbl>, hour <dbl>, minute <dbl>, time_hour <dttm>

# Voos que ocorreram entre abril e maio
flights %>% filter(between(month, 4, 5))

## # A tibble: 57,126 x 19
##     year month   day dep_time sched_dep_time dep_delay arr_time sched_arr_time
##    <int> <int> <int>    <int>          <int>     <dbl>    <int>          <int>
##  1  2013     4     1      454            500        -6      636            640
##  2  2013     4     1      509            515        -6      743            814
##  3  2013     4     1      526            530        -4      812            827
##  4  2013     4     1      534            540        -6      833            850
##  5  2013     4     1      542            545        -3      914            920
##  6  2013     4     1      543            545        -2      921            927
##  7  2013     4     1      551            600        -9      748            659
##  8  2013     4     1      552            600        -8      641            701
##  9  2013     4     1      553            600        -7      725            735
## 10  2013     4     1      554            600        -6      752            805
## # ... with 57,116 more rows, and 11 more variables: arr_delay <dbl>,
## #   carrier <chr>, flight <int>, tailnum <chr>, origin <chr>, dest <chr>,
## #   air_time <dbl>, distance <dbl>, hour <dbl>, minute <dbl>, time_hour <dttm>

Podemos combinar várias condições usando operadores lógicos

# Voos até 15 de abril ou até 15 de maio
flights %>% filter(
  between(month, 4, 5), # mesmo que usar &
  between(day, 1, 15)
)

## # A tibble: 28,176 x 19
##     year month   day dep_time sched_dep_time dep_delay arr_time sched_arr_time
##    <int> <int> <int>    <int>          <int>     <dbl>    <int>          <int>
##  1  2013     4     1      454            500        -6      636            640
##  2  2013     4     1      509            515        -6      743            814
##  3  2013     4     1      526            530        -4      812            827
##  4  2013     4     1      534            540        -6      833            850
##  5  2013     4     1      542            545        -3      914            920
##  6  2013     4     1      543            545        -2      921            927
##  7  2013     4     1      551            600        -9      748            659
##  8  2013     4     1      552            600        -8      641            701
##  9  2013     4     1      553            600        -7      725            735
## 10  2013     4     1      554            600        -6      752            805
## # ... with 28,166 more rows, and 11 more variables: arr_delay <dbl>,
## #   carrier <chr>, flight <int>, tailnum <chr>, origin <chr>, dest <chr>,
## #   air_time <dbl>, distance <dbl>, hour <dbl>, minute <dbl>, time_hour <dttm>

# Voos entre 15 de abril e 15 de maio
flights %>% filter(
  month == 4 & between(day, 15, 30) | # OU
  month == 5 & between(day, 1, 15)
)

## # A tibble: 29,101 x 19
##     year month   day dep_time sched_dep_time dep_delay arr_time sched_arr_time
##    <int> <int> <int>    <int>          <int>     <dbl>    <int>          <int>
##  1  2013     4    15        2           2359         3      341            339
##  2  2013     4    15      453            500        -7      639            640
##  3  2013     4    15      511            515        -4      741            802
##  4  2013     4    15      527            530        -3      806            813
##  5  2013     4    15      527            529        -2      750            743
##  6  2013     4    15      537            540        -3      846            840
##  7  2013     4    15      542            545        -3      931            927
##  8  2013     4    15      551            600        -9      728            758
##  9  2013     4    15      552            600        -8      835            850
## 10  2013     4    15      552            600        -8      648            701
## # ... with 29,091 more rows, and 11 more variables: arr_delay <dbl>,
## #   carrier <chr>, flight <int>, tailnum <chr>, origin <chr>, dest <chr>,
## #   air_time <dbl>, distance <dbl>, hour <dbl>, minute <dbl>, time_hour <dttm>

# Voos em todas os primeiros 7 dias de cada mês, exceto em janeiro e dezembro
flights %>% filter(
  between(day, 1, 7),
  !month %in% c(1, 12)
)

## # A tibble: 64,365 x 19
##     year month   day dep_time sched_dep_time dep_delay arr_time sched_arr_time
##    <int> <int> <int>    <int>          <int>     <dbl>    <int>          <int>
##  1  2013    10     1      447            500       -13      614            648
##  2  2013    10     1      522            517         5      735            757
##  3  2013    10     1      536            545        -9      809            855
##  4  2013    10     1      539            545        -6      801            827
##  5  2013    10     1      539            545        -6      917            933
##  6  2013    10     1      544            550        -6      912            932
##  7  2013    10     1      549            600       -11      653            716
##  8  2013    10     1      550            600       -10      648            700
##  9  2013    10     1      550            600       -10      649            659
## 10  2013    10     1      551            600        -9      727            730
## # ... with 64,355 more rows, and 11 more variables: arr_delay <dbl>,
## #   carrier <chr>, flight <int>, tailnum <chr>, origin <chr>, dest <chr>,
## #   air_time <dbl>, distance <dbl>, hour <dbl>, minute <dbl>, time_hour <dttm>

# Voos saidos de JFK, excluindo aqueles para os quais não tem informações de horário de saída
flights %>% filter(
  origin == "JFK", !is.na(dep_time)
)

## # A tibble: 109,416 x 19
##     year month   day dep_time sched_dep_time dep_delay arr_time sched_arr_time
##    <int> <int> <int>    <int>          <int>     <dbl>    <int>          <int>
##  1  2013     1     1      542            540         2      923            850
##  2  2013     1     1      544            545        -1     1004           1022
##  3  2013     1     1      557            600        -3      838            846
##  4  2013     1     1      558            600        -2      849            851
##  5  2013     1     1      558            600        -2      853            856
##  6  2013     1     1      558            600        -2      924            917
##  7  2013     1     1      559            559         0      702            706
##  8  2013     1     1      606            610        -4      837            845
##  9  2013     1     1      611            600        11      945            931
## 10  2013     1     1      613            610         3      925            921
## # ... with 109,406 more rows, and 11 more variables: arr_delay <dbl>,
## #   carrier <chr>, flight <int>, tailnum <chr>, origin <chr>, dest <chr>,
## #   air_time <dbl>, distance <dbl>, hour <dbl>, minute <dbl>, time_hour <dttm>

# Voos com mais de 30 minutos de atraso em janeiro ou dezembro
flights %>% filter(
  dep_delay > 30, xor(month == 1, month == 12)
)

## # A tibble: 8,221 x 19
##     year month   day dep_time sched_dep_time dep_delay arr_time sched_arr_time
##    <int> <int> <int>    <int>          <int>     <dbl>    <int>          <int>
##  1  2013     1     1      732            645        47     1011            941
##  2  2013     1     1      749            710        39      939            850
##  3  2013     1     1      811            630       101     1047            830
##  4  2013     1     1      826            715        71     1136           1045
##  5  2013     1     1      848           1835       853     1001           1950
##  6  2013     1     1      903            820        43     1045            955
##  7  2013     1     1      909            810        59     1331           1315
##  8  2013     1     1      953            921        32     1320           1241
##  9  2013     1     1      957            733       144     1056            853
## 10  2013     1     1     1025            951        34     1258           1302
## # ... with 8,211 more rows, and 11 more variables: arr_delay <dbl>,
## #   carrier <chr>, flight <int>, tailnum <chr>, origin <chr>, dest <chr>,
## #   air_time <dbl>, distance <dbl>, hour <dbl>, minute <dbl>, time_hour <dttm>

E assim sucessivamente.

Da mesma forma, temos select para selecionar as variáveis do banco. As duas grandes novidades são que você não precisa utilizar aspas na seleção de variáveis e que select introduz várias helper functions para facilitar a seleção de variáveis parecidas.

# Selecionar as colunas ano, mes, dia, horario de saida e horario de chegada
flights %>% select(year, month, day, dep_time, arr_time)

## # A tibble: 336,776 x 5
##     year month   day dep_time arr_time
##    <int> <int> <int>    <int>    <int>
##  1  2013     1     1      517      830
##  2  2013     1     1      533      850
##  3  2013     1     1      542      923
##  4  2013     1     1      544     1004
##  5  2013     1     1      554      812
##  6  2013     1     1      554      740
##  7  2013     1     1      555      913
##  8  2013     1     1      557      709
##  9  2013     1     1      557      838
## 10  2013     1     1      558      753
## # ... with 336,766 more rows

# Utilizando helpers
flights %>% select(year:dep_time, arr_time)

## # A tibble: 336,776 x 5
##     year month   day dep_time arr_time
##    <int> <int> <int>    <int>    <int>
##  1  2013     1     1      517      830
##  2  2013     1     1      533      850
##  3  2013     1     1      542      923
##  4  2013     1     1      544     1004
##  5  2013     1     1      554      812
##  6  2013     1     1      554      740
##  7  2013     1     1      555      913
##  8  2013     1     1      557      709
##  9  2013     1     1      557      838
## 10  2013     1     1      558      753
## # ... with 336,766 more rows
…
