readr, tibble e tidyr | LADDEM
…
## cols(
##   mpg = col_double(),
##   cyl = col_double(),
##   disp = col_double(),
##   hp = col_double(),
##   drat = col_double(),
##   wt = col_double(),
##   qsec = col_double(),
##   vs = col_double(),
##   am = col_double(),
##   gear = col_double(),
##   carb = col_double()
## )

## # A tibble: 32 x 11
##      mpg   cyl  disp    hp  drat    wt  qsec    vs    am  gear  carb
##    <dbl> <dbl> <dbl> <dbl> <dbl> <dbl> <dbl> <dbl> <dbl> <dbl> <dbl>
##  1  21       6  160    110  3.9   2.62  16.5     0     1     4     4
##  2  21       6  160    110  3.9   2.88  17.0     0     1     4     4
##  3  22.8     4  108     93  3.85  2.32  18.6     1     1     4     1
##  4  21.4     6  258    110  3.08  3.22  19.4     1     0     3     1
##  5  18.7     8  360    175  3.15  3.44  17.0     0     0     3     2
##  6  18.1     6  225    105  2.76  3.46  20.2     1     0     3     1
##  7  14.3     8  360    245  3.21  3.57  15.8     0     0     3     4
##  8  24.4     4  147.    62  3.69  3.19  20       1     0     4     2
##  9  22.8     4  141.    95  3.92  3.15  22.9     1     0     4     2
## 10  19.2     6  168.   123  3.92  3.44  18.3     1     0     4     4
## # ... with 22 more rows
…
df <- read_csv(readr_example("mtcars.csv"), col_types = spec_cols)
df

## # A tibble: 32 x 11
##      mpg cyl    disp    hp  drat    wt  qsec    vs am     gear  carb
##    <dbl> <fct> <dbl> <dbl> <dbl> <dbl> <dbl> <dbl> <fct> <dbl> <dbl>
##  1  21   6      160    110  3.9   2.62  16.5     0 1         4     4
##  2  21   6      160    110  3.9   2.88  17.0     0 1         4     4
##  3  22.8 4      108     93  3.85  2.32  18.6     1 1         4     1
##  4  21.4 6      258    110  3.08  3.22  19.4     1 0         3     1
##  5  18.7 8      360    175  3.15  3.44  17.0     0 0         3     2
##  6  18.1 6      225    105  2.76  3.46  20.2     1 0         3     1
##  7  14.3 8      360    245  3.21  3.57  15.8     0 0         3     4
##  8  24.4 4      147.    62  3.69  3.19  20       1 0         4     2
##  9  22.8 4      141.    95  3.92  3.15  22.9     1 0         4     2
## 10  19.2 6      168.   123  3.92  3.44  18.3     1 0         4     4
## # ... with 22 more rows

# Para importar apenas colunas selecionadas, utilize 'cols_only()'
spec_cols2 <- cols_only(
  mpg = col_double(),
  cyl = col_factor(), # N de cilindros do automóvel
  am = col_factor(c("0", "1")), # Transmissão automática ou manual
  gear = col_double(),
  carb = col_double()
)

df2 <- read_csv(readr_example("mtcars.csv"), col_types = spec_cols2)
df2

## # A tibble: 32 x 5
##      mpg cyl   am     gear  carb
##    <dbl> <fct> <fct> <dbl> <dbl>
##  1  21   6     1         4     4
##  2  21   6     1         4     4
##  3  22.8 4     1         4     1
##  4  21.4 6     0         3     1
##  5  18.7 8     0         3     2
##  6  18.1 6     0         3     1
##  7  14.3 8     0         3     4
##  8  24.4 4     0         4     2
##  9  22.8 4     0         4     2
## 10  19.2 6     0         4     4
## # ... with 22 more rows

# Para indicar os tipos de colunas de um jeito mais sucinto, utilize uma string:

df <- read_csv(readr_example("mtcars.csv"), col_types = "dfddddddfdd")

# Só cuidado pra não perder a conta dos ds!
df

## # A tibble: 32 x 11
##      mpg cyl    disp    hp  drat    wt  qsec    vs am     gear  carb
##    <dbl> <fct> <dbl> <dbl> <dbl> <dbl> <dbl> <dbl> <fct> <dbl> <dbl>
##  1  21   6      160    110  3.9   2.62  16.5     0 1         4     4
##  2  21   6      160    110  3.9   2.88  17.0     0 1         4     4
##  3  22.8 4      108     93  3.85  2.32  18.6     1 1         4     1
##  4  21.4 6      258    110  3.08  3.22  19.4     1 0         3     1
##  5  18.7 8      360    175  3.15  3.44  17.0     0 0         3     2
##  6  18.1 6      225    105  2.76  3.46  20.2     1 0         3     1
##  7  14.3 8      360    245  3.21  3.57  15.8     0 0         3     4
##  8  24.4 4      147.    62  3.69  3.19  20       1 0         4     2
##  9  22.8 4      141.    95  3.92  3.15  22.9     1 0         4     2
## 10  19.2 6      168.   123  3.92  3.44  18.3     1 0         4     4
## # ... with 22 more rows
…
## cols(
##   mpg = col_number(),
##   cyl = col_double(),
##   disp = col_number(),
##   hp = col_double(),
##   drat = col_number(),
##   wt = col_number(),
##   qsec = col_number(),
##   vs = col_double(),
##   am = col_double(),
##   gear = col_double(),
##   carb = col_double()
## )

## # A tibble: 32 x 11
##      mpg   cyl  disp    hp  drat    wt  qsec    vs    am  gear  carb
##    <dbl> <dbl> <dbl> <dbl> <dbl> <dbl> <dbl> <dbl> <dbl> <dbl> <dbl>
##  1    21     6   160   110    39   262  1646     0     1     4     4
##  2    21     6   160   110    39  2875  1702     0     1     4     4
##  3   228     4   108    93   385   232  1861     1     1     4     1
##  4   214     6   258   110   308  3215  1944     1     0     3     1
##  5   187     8   360   175   315   344  1702     0     0     3     2
##  6   181     6   225   105   276   346  2022     1     0     3     1
##  7   143     8   360   245   321   357  1584     0     0     3     4
##  8   244     4  1467    62   369   319    20     1     0     4     2
##  9   228     4  1408    95   392   315   229     1     0     4     2
## 10   192     6  1676   123   392   344   183     1     0     4     4
## # ... with 22 more rows
…
Especificar dicionários para arquivos colunados é um pé-no-saco, por sorte, existem pacotes que já fizeram parte desse trabalho por nós. O readr não melhora muita o serviço manual de construção de dicionários, o que ele oferece é um ganho de performance tremendo. read_fwf é centenas de vezes mais rápido que o base read.fwf.

Em termos do que o pacote faz, é basicamente isso. A única coisa que falta mencionar é que ele importa os dados como tibbles ao invés do data.frame padrão, mas isso já é um ótimo gancho pra nossa próxima parte.

tibbles

Tibbles são basicamente data.frames com um método mais bonitinho de print. Elas automaticamente se ajustam a largura da sua tela, omitindo as colunas que estouram, e por padrão imprimem só as 10 primeiras observações. Outras características que pessoalmente gosto, é que elas informam o tipo de variável junto com o nome, arrendondam digitos significativos, destacam números grandes, negativos, NAs e etc.

df <- read_csv(readr_example("mtcars.csv"), col_types = cols()) # omitir a especificação
df

## # A tibble: 32 x 11
##      mpg   cyl  disp    hp  drat    wt  qsec    vs    am  gear  carb
##    <dbl> <dbl> <dbl> <dbl> <dbl> <dbl> <dbl> <dbl> <dbl> <dbl> <dbl>
##  1  21       6  160    110  3.9   2.62  16.5     0     1     4     4
##  2  21       6  160    110  3.9   2.88  17.0     0     1     4     4
##  3  22.8     4  108     93  3.85  2.32  18.6     1     1     4     1
##  4  21.4     6  258    110  3.08  3.22  19.4     1     0     3     1
##  5  18.7     8  360    175  3.15  3.44  17.0     0     0     3     2
##  6  18.1     6  225    105  2.76  3.46  20.2     1     0     3     1
##  7  14.3     8  360    245  3.21  3.57  15.8     0     0     3     4
##  8  24.4     4  147.    62  3.69  3.19  20       1     0     4     2
##  9  22.8     4  141.    95  3.92  3.15  22.9     1     0     4     2
## 10  19.2     6  168.   123  3.92  3.44  18.3     1     0     4     4
## # ... with 22 more rows
…
Ela nunca utiliza row.names

head(data.frame(state.x77))

##            Population Income Illiteracy Life.Exp Murder HS.Grad Frost   Area
## Alabama          3615   3624        2.1    69.05   15.1    41.3    20  50708
## Alaska            365   6315        1.5    69.31   11.3    66.7   152 566432
## Arizona          2212   4530        1.8    70.55    7.8    58.1    15 113417
## Arkansas         2110   3378        1.9    70.66   10.1    39.9    65  51945
## California      21198   5114        1.1    71.71   10.3    62.6    20 156361
## Colorado         2541   4884        0.7    72.06    6.8    63.9   166 103766

as_tibble(state.x77)

## # A tibble: 50 x 8
##    Population Income Illiteracy `Life Exp` Murder `HS Grad` Frost   Area
##         <dbl>  <dbl>      <dbl>      <dbl>  <dbl>     <dbl> <dbl>  <dbl>
##  1       3615   3624        2.1       69.0   15.1      41.3    20  50708
##  2        365   6315        1.5       69.3   11.3      66.7   152 566432
##  3       2212   4530        1.8       70.6    7.8      58.1    15 113417
##  4       2110   3378        1.9       70.7   10.1      39.9    65  51945
##  5      21198   5114        1.1       71.7   10.3      62.6    20 156361
##  6       2541   4884        0.7       72.1    6.8      63.9   166 103766
##  7       3100   5348        1.1       72.5    3.1      56     139   4862
##  8        579   4809        0.9       70.1    6.2      54.6   103   1982
##  9       8277   4815        1.3       70.7   10.7      52.6    11  54090
## 10       4931   4091        2         68.5   13.9      40.6    60  58073
## # ... with 40 more rows
…
Isto tem uma razão de ser que deve tornar-se óbvia quando tentarmos realizar as operações de transformação de variáveis, visualização, modelos, etc. Porém, muitas vezes outras considerações são feitas na hora registrar os dados, armazená-los, apresentá-los ao público, por isso, frequentemente nossos dados não estão no formato tidy e precisam ser reformatados. Essa é uma das principais tarefas do tidyr e é nela que vamos nos concentrar.

Atente que reformatação, como muitos outros aspectos da análise de dados, não é receita de bolo. Muitas vezes o formato desejado não é óbvio, muito menos os passos necessários para chegar lá. Porém, vou apresentar as ferramentas e alguns exemplos simples que cobrem muitos dos nossos casos de uso.

library(tidyr)
who

## # A tibble: 7,240 x 60
##    country  iso2  iso3   year new_sp_m014 new_sp_m1524 new_sp_m2534 new_sp_m3544
##    <chr>    <chr> <chr> <int>       <int>        <int>        <int>        <int>
##  1 Afghani~ AF    AFG    1980          NA           NA           NA           NA
##  2 Afghani~ AF    AFG    1981          NA           NA           NA           NA
##  3 Afghani~ AF    AFG    1982          NA           NA           NA           NA
##  4 Afghani~ AF    AFG    1983          NA           NA           NA           NA
##  5 Afghani~ AF    AFG    1984          NA           NA           NA           NA
##  6 Afghani~ AF    AFG    1985          NA           NA           NA           NA
##  7 Afghani~ AF    AFG    1986          NA           NA           NA           NA
##  8 Afghani~ AF    AFG    1987          NA           NA           NA           NA
##  9 Afghani~ AF    AFG    1988          NA           NA           NA           NA
## 10 Afghani~ AF    AFG    1989          NA           NA           NA           NA
## # ... with 7,230 more rows, and 52 more variables: new_sp_m4554 <int>,
## #   new_sp_m5564 <int>, new_sp_m65 <int>, new_sp_f014 <int>,
## #   new_sp_f1524 <int>, new_sp_f2534 <int>, new_sp_f3544 <int>,
## #   new_sp_f4554 <int>, new_sp_f5564 <int>, new_sp_f65 <int>,
## #   new_sn_m014 <int>, new_sn_m1524 <int>, new_sn_m2534 <int>,
## #   new_sn_m3544 <int>, new_sn_m4554 <int>, new_sn_m5564 <int>,
## #   new_sn_m65 <int>, new_sn_f014 <int>, new_sn_f1524 <int>,
## #   new_sn_f2534 <int>, new_sn_f3544 <int>, new_sn_f4554 <int>,
## #   new_sn_f5564 <int>, new_sn_f65 <int>, new_ep_m014 <int>,
…
As informações de tipo de tuberculose e idade dos pacientes estão espalhadas pelas colunas. Pra encurtar a história, precisamos “tombar” esse banco para que essas colunas se tornem um novo conjunto de variáveis. Vamos passo a passo.

# Primeiro, vamos excluir as colunas iso2 e iso3, porque elas são a mesma informação redundante
who$iso2 <- NULL
who$iso3 <- NULL

who1 <- pivot_longer(who,
                     cols = c(new_sp_m014:newrel_f65),
                     names_to = "tipo_tb",
                     values_to = "casos",
                     values_drop_na = TRUE)
who1

## # A tibble: 76,046 x 4
##    country      year tipo_tb      casos
##    <chr>       <int> <chr>        <int>
##  1 Afghanistan  1997 new_sp_m014      0
##  2 Afghanistan  1997 new_sp_m1524    10
##  3 Afghanistan  1997 new_sp_m2534     6
##  4 Afghanistan  1997 new_sp_m3544     3
##  5 Afghanistan  1997 new_sp_m4554     5
##  6 Afghanistan  1997 new_sp_m5564     2
##  7 Afghanistan  1997 new_sp_m65       0
##  8 Afghanistan  1997 new_sp_f014      5
##  9 Afghanistan  1997 new_sp_f1524    38
## 10 Afghanistan  1997 new_sp_f2534    36
## # ... with 76,036 more rows
…
# Notem que newrel deveria ser new_rel
# Alguns de vocês devem conhecer 'gsub'
who1$tipo_tb <- gsub("newrel", "new_rel", who1$tipo_tb)

# Agora, podemos usar outra função chave do tidyr, 'separate'
who2 <- who1 %>%  separate(col = tipo_tb,
                           into = c(NA, "tipo_tb", "sexo_idade"),
                           sep = "_")
who2

## # A tibble: 76,046 x 5
##    country      year tipo_tb sexo_idade casos
##    <chr>       <int> <chr>   <chr>      <int>
##  1 Afghanistan  1997 sp      m014           0
##  2 Afghanistan  1997 sp      m1524         10
##  3 Afghanistan  1997 sp      m2534          6
##  4 Afghanistan  1997 sp      m3544          3
##  5 Afghanistan  1997 sp      m4554          5
##  6 Afghanistan  1997 sp      m5564          2
##  7 Afghanistan  1997 sp      m65            0
##  8 Afghanistan  1997 sp      f014           5
##  9 Afghanistan  1997 sp      f1524         38
## 10 Afghanistan  1997 sp      f2534         36
## # ... with 76,036 more rows

# E outra passagem de separate para separar a idade do sexo
who3 <- who2 %>% separate(col = sexo_idade,
                          into = c("sexo", "idade"),
                          sep = 1)
who3

## # A tibble: 76,046 x 6
##    country      year tipo_tb sexo  idade casos
##    <chr>       <int> <chr>   <chr> <chr> <int>
##  1 Afghanistan  1997 sp      m     014       0
##  2 Afghanistan  1997 sp      m     1524     10
##  3 Afghanistan  1997 sp      m     2534      6
##  4 Afghanistan  1997 sp      m     3544      3
##  5 Afghanistan  1997 sp      m     4554      5
##  6 Afghanistan  1997 sp      m     5564      2
##  7 Afghanistan  1997 sp      m     65        0
##  8 Afghanistan  1997 sp      f     014       5
##  9 Afghanistan  1997 sp      f     1524     38
## 10 Afghanistan  1997 sp      f     2534     36
## # ... with 76,036 more rows
…
O outro problema que precisamos resolver frequentemente, é separar um par de variáveis em diversas colunas, fazendo o caminho inverso que fizemos no caso do dataset da OMS.

us_rent_income

## # A tibble: 104 x 5
##    GEOID NAME       variable estimate   moe
##    <chr> <chr>      <chr>       <dbl> <dbl>
##  1 01    Alabama    income      24476   136
##  2 01    Alabama    rent          747     3
##  3 02    Alaska     income      32940   508
##  4 02    Alaska     rent         1200    13
##  5 04    Arizona    income      27517   148
##  6 04    Arizona    rent          972     4
##  7 05    Arkansas   income      23789   165
##  8 05    Arkansas   rent          709     5
##  9 06    California income      29454   109
## 10 06    California rent         1358     3
## # ... with 94 more rows
…
## # A tibble: 2 x 6
##   GEOID NAME    income_estimate rent_estimate income_moe rent_moe
##   <chr> <chr>             <dbl>         <dbl>      <dbl>    <dbl>
## 1 01    Alabama           24476           747        136        3
## 2 02    Alaska            32940          1200        508       13

O banco que queremos tem uma cara assim. Ele tem mais colunas novas e menos linhas, já que eu tinha no formato tidy uma variável chamada “variable” que guardava os valores renda e aluguel e duas colunas que guardavam os valores da estimativa e do moe. Agora, eu vou ter 4 colunas, duas para as estimativas de renda e aluguel e duas para os moes das mesmas variáveis. Como especificar isso para o banco todo? Usando pivot_wider.

us_rent_income %>% pivot_wider(names_from = variable, values_from = c(estimate, moe))

## # A tibble: 52 x 6
##    GEOID NAME                 estimate_income estimate_rent moe_income moe_rent
##    <chr> <chr>                          <dbl>         <dbl>      <dbl>    <dbl>
##  1 01    Alabama                        24476           747        136        3
##  2 02    Alaska                         32940          1200        508       13
##  3 04    Arizona                        27517           972        148        4
##  4 05    Arkansas                       23789           709        165        5
##  5 06    California                     29454          1358        109        3
##  6 08    Colorado                       32401          1125        109        5
##  7 09    Connecticut                    35326          1123        195        5
##  8 10    Delaware                       31560          1076        247       10
##  9 11    District of Columbia           43198          1424        681       17
## 10 12    Florida                        25952          1077         70        3
## # ... with 42 more rows
…
Podemos transformar esse banco de dados rapidamente usando um dos argumentos de pivot_longer, chamado names_pattern.

anscombe %>% pivot_longer(everything(),
                          names_to = c(".value", "set"),
                          names_pattern = "(.)(.)")

## # A tibble: 44 x 3
##    set       x     y
##    <chr> <dbl> <dbl>
##  1 1        10  8.04
##  2 2        10  9.14
##  3 3        10  7.46
##  4 4         8  6.58
##  5 1         8  6.95
##  6 2         8  8.14
##  7 3         8  6.77
##  8 4         8  5.76
##  9 1        13  7.58
## 10 2        13  8.74
## # ... with 34 more rows
…
Transforme o banco billboard para que ele contenha apenas uma coluna “semana” e uma coluna com a posição da música no ranking.

# Dica, você pode selecionar várias colunas usando o atalho wk1:wk76
billboard 

## # A tibble: 317 x 79
##    artist   track   date.entered   wk1   wk2   wk3   wk4   wk5   wk6   wk7   wk8
##    <chr>    <chr>   <date>       <dbl> <dbl> <dbl> <dbl> <dbl> <dbl> <dbl> <dbl>
##  1 2 Pac    Baby D~ 2000-02-26      87    82    72    77    87    94    99    NA
##  2 2Ge+her  The Ha~ 2000-09-02      91    87    92    NA    NA    NA    NA    NA
##  3 3 Doors~ Krypto~ 2000-04-08      81    70    68    67    66    57    54    53
##  4 3 Doors~ Loser   2000-10-21      76    76    72    69    67    65    55    59
##  5 504 Boyz Wobble~ 2000-04-15      57    34    25    17    17    31    36    49
##  6 98^0     Give M~ 2000-08-19      51    39    34    26    26    19     2     2
##  7 A*Teens  Dancin~ 2000-07-08      97    97    96    95   100    NA    NA    NA
##  8 Aaliyah  I Don'~ 2000-01-29      84    62    51    41    38    35    35    38
##  9 Aaliyah  Try Ag~ 2000-03-18      59    53    38    28    21    18    16    14
## 10 Adams, ~ Open M~ 2000-08-26      76    76    74    69    68    67    61    58
## # ... with 307 more rows, and 68 more variables: wk9 <dbl>, wk10 <dbl>,
## #   wk11 <dbl>, wk12 <dbl>, wk13 <dbl>, wk14 <dbl>, wk15 <dbl>, wk16 <dbl>,
## #   wk17 <dbl>, wk18 <dbl>, wk19 <dbl>, wk20 <dbl>, wk21 <dbl>, wk22 <dbl>,
## #   wk23 <dbl>, wk24 <dbl>, wk25 <dbl>, wk26 <dbl>, wk27 <dbl>, wk28 <dbl>,
## #   wk29 <dbl>, wk30 <dbl>, wk31 <dbl>, wk32 <dbl>, wk33 <dbl>, wk34 <dbl>,
## #   wk35 <dbl>, wk36 <dbl>, wk37 <dbl>, wk38 <dbl>, wk39 <dbl>, wk40 <dbl>,
## #   wk41 <dbl>, wk42 <dbl>, wk43 <dbl>, wk44 <dbl>, wk45 <dbl>, wk46 <dbl>,
## #   wk47 <dbl>, wk48 <dbl>, wk49 <dbl>, wk50 <dbl>, wk51 <dbl>, wk52 <dbl>,
## #   wk53 <dbl>, wk54 <dbl>, wk55 <dbl>, wk56 <dbl>, wk57 <dbl>, wk58 <dbl>,
…
