purrr | LADDEM
…
soma_xyz <- function(x) {
  soma_xyz <- vector(mode = "double", length = nrow(x))
  for (i in seq_along(df$soma_xyz)) {
    soma_xyz[[i]] <- x[[1]][[i]] + x[[2]][[i]] + x[[3]][i]
  }
  soma_xyz
}

df$soma_xyz2 <- soma_xyz(df)

## Warning: Unknown or uninitialised column: `soma_xyz`.

df

## # A tibble: 100 x 4
##        x     y     z soma_xyz2
##    <dbl> <dbl> <dbl>     <dbl>
##  1  91.3  90.4  195.         0
##  2  27.6  98.3  245.         0
##  3  37.5  46.6  195.         0
##  4  63.8  90.3  196.         0
##  5  62.6  94.4  247.         0
##  6  27.2 112.   209.         0
##  7  55.4  78.6  217.         0
##  8  50.3 113.   233.         0
##  9  34.3  74.5  235.         0
## 10  68.8  94.4  193.         0
## # ... with 90 more rows
…
# Bancos "aumentados" com valores ajustados, resíduos, distâncias de cook, etc.
models %>% 
  filter(names == "displ") %>% 
  select(names, augmented) %>% 
  unnest(augmented)

## # A tibble: 234 x 9
##    names   hwy displ .fitted .resid    .hat .sigma    .cooksd .std.resid
##    <chr> <int> <dbl>   <dbl>  <dbl>   <dbl>  <dbl>      <dbl>      <dbl>
##  1 displ    29   1.8    29.3 -0.343 0.0115    3.84 0.0000468     -0.0898
##  2 displ    29   1.8    29.3 -0.343 0.0115    3.84 0.0000468     -0.0898
##  3 displ    31   2      28.6  2.36  0.00984   3.84 0.00191        0.619 
##  4 displ    30   2      28.6  1.36  0.00984   3.84 0.000634       0.357 
##  5 displ    26   2.8    25.8  0.188 0.00543   3.84 0.00000660     0.0491
##  6 displ    26   2.8    25.8  0.188 0.00543   3.84 0.00000660     0.0491
##  7 displ    27   3.1    24.8  2.25  0.00463   3.84 0.000802       0.587 
##  8 displ    26   1.8    29.3 -3.34  0.0115    3.84 0.00445       -0.876 
##  9 displ    25   1.8    29.3 -4.34  0.0115    3.83 0.00751       -1.14  
## 10 displ    28   2      28.6 -0.636 0.00984   3.84 0.000138      -0.167 
## # ... with 224 more rows

Isso aqui é só uma palhinha de modelagem com o tidyverse, mas acho que é uma demonstração muito convincente da aplicabilidade dos exemplos que vimos usando programação funcional.

Outro exemplo mais simples com map2: salvar vários arquivos de uma vez só.

df1 <- tibble(x = rnorm(100), y = rnorm(100), z = rnorm(100))
df2 <- tibble(x = rnorm(100), y = rnorm(100), z = rnorm(100))
df3 <- tibble(x = rnorm(100), y = rnorm(100), z = rnorm(100))
df4 <- tibble(x = rnorm(100), y = rnorm(100), z = rnorm(100))

dfs <- list(df1, df2, df3, df4)
dfs

## [[1]]
## # A tibble: 100 x 3
##         x       y       z
##     <dbl>   <dbl>   <dbl>
##  1  0.841  2.68    0.0835
##  2  0.554 -0.131   0.526 
##  3 -0.171  0.614   0.898 
##  4  0.861  0.887   0.550 
##  5 -0.512  0.514  -0.191 
##  6  0.593 -0.498  -0.137 
##  7 -1.18  -0.298  -1.14  
##  8 -0.321  0.0182  0.693 
##  9 -0.993 -0.0592  0.507 
## 10 -1.20  -0.625  -0.678 
## # ... with 90 more rows
## 
## [[2]]
## # A tibble: 100 x 3
##         x       y       z
##     <dbl>   <dbl>   <dbl>
##  1  0.101  0.259   0.282 
##  2 -0.370 -0.223  -0.622 
##  3  1.66   0.0762  1.87  
##  4 -0.289  0.111  -2.20  
##  5  0.174 -0.695  -0.0989
##  6 -0.647 -0.709   1.53  
##  7  0.360 -0.966  -1.14  
##  8 -1.36   1.06    0.246 
##  9 -2.22  -1.33   -0.805 
## 10  0.881 -0.920   1.84  
## # ... with 90 more rows
## 
## [[3]]
## # A tibble: 100 x 3
##         x       y       z
##     <dbl>   <dbl>   <dbl>
##  1 -1.45  -2.37   -0.563 
##  2  0.161  0.473   0.0762
##  3  0.546 -0.764   1.05  
##  4  1.68   0.240   1.27  
##  5  1.19  -2.24   -0.211 
##  6 -1.76  -1.44    0.276 
##  7  0.823 -0.562   1.15  
##  8 -0.358  0.159   0.261 
##  9  0.325 -0.250  -0.650 
## 10  1.03  -0.0697  2.19  
## # ... with 90 more rows
## 
## [[4]]
## # A tibble: 100 x 3
##           x       y      z
##       <dbl>   <dbl>  <dbl>
##  1  0.551    1.12   -0.958
##  2  0.00661  1.04    1.38 
##  3  1.00    -1.78    0.405
##  4 -1.99     1.96    0.723
##  5  0.0453  -0.944   1.29 
##  6  1.97     1.16    1.12 
##  7 -0.151   -0.452  -0.134
##  8 -2.06    -0.115  -0.436
##  9  1.00     1.62   -1.11 
## 10 -0.546    0.0693 -0.955
## # ... with 90 more rows

paths <- sprintf("arquivo%s.csv", 1:4)
paths

## [1] "arquivo1.csv" "arquivo2.csv" "arquivo3.csv" "arquivo4.csv"

map2(dfs, paths, ~write_csv(x = .x, file = .y))

## [[1]]
## # A tibble: 100 x 3
##         x       y       z
##     <dbl>   <dbl>   <dbl>
##  1  0.841  2.68    0.0835
##  2  0.554 -0.131   0.526 
##  3 -0.171  0.614   0.898 
##  4  0.861  0.887   0.550 
##  5 -0.512  0.514  -0.191 
##  6  0.593 -0.498  -0.137 
##  7 -1.18  -0.298  -1.14  
##  8 -0.321  0.0182  0.693 
##  9 -0.993 -0.0592  0.507 
## 10 -1.20  -0.625  -0.678 
## # ... with 90 more rows
## 
## [[2]]
## # A tibble: 100 x 3
##         x       y       z
##     <dbl>   <dbl>   <dbl>
##  1  0.101  0.259   0.282 
##  2 -0.370 -0.223  -0.622 
##  3  1.66   0.0762  1.87  
##  4 -0.289  0.111  -2.20  
##  5  0.174 -0.695  -0.0989
##  6 -0.647 -0.709   1.53  
##  7  0.360 -0.966  -1.14  
##  8 -1.36   1.06    0.246 
##  9 -2.22  -1.33   -0.805 
## 10  0.881 -0.920   1.84  
## # ... with 90 more rows
## 
## [[3]]
## # A tibble: 100 x 3
##         x       y       z
##     <dbl>   <dbl>   <dbl>
##  1 -1.45  -2.37   -0.563 
##  2  0.161  0.473   0.0762
##  3  0.546 -0.764   1.05  
##  4  1.68   0.240   1.27  
##  5  1.19  -2.24   -0.211 
##  6 -1.76  -1.44    0.276 
##  7  0.823 -0.562   1.15  
##  8 -0.358  0.159   0.261 
##  9  0.325 -0.250  -0.650 
## 10  1.03  -0.0697  2.19  
## # ... with 90 more rows
## 
## [[4]]
## # A tibble: 100 x 3
##           x       y      z
##       <dbl>   <dbl>  <dbl>
##  1  0.551    1.12   -0.958
##  2  0.00661  1.04    1.38 
##  3  1.00    -1.78    0.405
##  4 -1.99     1.96    0.723
##  5  0.0453  -0.944   1.29 
##  6  1.97     1.16    1.12 
##  7 -0.151   -0.452  -0.134
##  8 -2.06    -0.115  -0.436
##  9  1.00     1.62   -1.11 
## 10 -0.546    0.0693 -0.955
## # ... with 90 more rows
…
## cols(
##   x = col_double(),
##   y = col_double(),
##   z = col_double()
## )
## 
## 
## -- Column specification --------------------------------------------------------
## cols(
##   x = col_double(),
##   y = col_double(),
##   z = col_double()
## )

## # A tibble: 400 x 4
##    arquivo      x       y       z
##    <chr>    <dbl>   <dbl>   <dbl>
##  1 1        0.841  2.68    0.0835
##  2 1        0.554 -0.131   0.526 
##  3 1       -0.171  0.614   0.898 
##  4 1        0.861  0.887   0.550 
##  5 1       -0.512  0.514  -0.191 
##  6 1        0.593 -0.498  -0.137 
##  7 1       -1.18  -0.298  -1.14  
##  8 1       -0.321  0.0182  0.693 
##  9 1       -0.993 -0.0592  0.507 
## 10 1       -1.20  -0.625  -0.678 
## # ... with 390 more rows
…
l %>% keep(is.numeric) %>% str()

## List of 1
##  $ : num [1:3] 1 2 3

l %>% keep(is.character) %>% str()

## List of 1
##  $ : chr [1:3] "a" "b" "c"

O uso mais frequente que vejo de keep e discard é como uma espécie de atalho para select. Como data.frames são secretamente listas, você pode rapidamente selecionar todas as variáveis do banco que tenham o mesmo tipo.

flights %>% keep(is.numeric)

## # A tibble: 336,776 x 14
##     year month   day dep_time sched_dep_time dep_delay arr_time sched_arr_time
##    <int> <int> <int>    <int>          <int>     <dbl>    <int>          <int>
##  1  2013     1     1      517            515         2      830            819
##  2  2013     1     1      533            529         4      850            830
##  3  2013     1     1      542            540         2      923            850
##  4  2013     1     1      544            545        -1     1004           1022
##  5  2013     1     1      554            600        -6      812            837
##  6  2013     1     1      554            558        -4      740            728
##  7  2013     1     1      555            600        -5      913            854
##  8  2013     1     1      557            600        -3      709            723
##  9  2013     1     1      557            600        -3      838            846
## 10  2013     1     1      558            600        -2      753            745
## # ... with 336,766 more rows, and 6 more variables: arr_delay <dbl>,
## #   flight <int>, air_time <dbl>, distance <dbl>, hour <dbl>, minute <dbl>

flights %>% discard(is.character)

## # A tibble: 336,776 x 15
##     year month   day dep_time sched_dep_time dep_delay arr_time sched_arr_time
##    <int> <int> <int>    <int>          <int>     <dbl>    <int>          <int>
##  1  2013     1     1      517            515         2      830            819
##  2  2013     1     1      533            529         4      850            830
##  3  2013     1     1      542            540         2      923            850
##  4  2013     1     1      544            545        -1     1004           1022
##  5  2013     1     1      554            600        -6      812            837
##  6  2013     1     1      554            558        -4      740            728
##  7  2013     1     1      555            600        -5      913            854
##  8  2013     1     1      557            600        -3      709            723
##  9  2013     1     1      557            600        -3      838            846
## 10  2013     1     1      558            600        -2      753            745
## # ... with 336,766 more rows, and 7 more variables: arr_delay <dbl>,
## #   flight <int>, air_time <dbl>, distance <dbl>, hour <dbl>, minute <dbl>,
## #   time_hour <dttm>
…
new_df <- reduce(dfs, bind_rows)
new_df

## # A tibble: 400 x 3
##         x       y       z
##     <dbl>   <dbl>   <dbl>
##  1  0.841  2.68    0.0835
##  2  0.554 -0.131   0.526 
##  3 -0.171  0.614   0.898 
##  4  0.861  0.887   0.550 
##  5 -0.512  0.514  -0.191 
##  6  0.593 -0.498  -0.137 
##  7 -1.18  -0.298  -1.14  
##  8 -0.321  0.0182  0.693 
##  9 -0.993 -0.0592  0.507 
## 10 -1.20  -0.625  -0.678 
## # ... with 390 more rows
…
